{
    "openapi": "3.0.0",
    "info": {
        "title": "API Carreras",
        "version": "1.0"
    },
    "servers": [
        {
            "url": "http://swagger.local"
        }
    ],
    "paths": {
        "/api/career": {
            "get": {
                "summary": "Mostrar carreras",
                "operationId": "App\\Http\\Controllers\\CareerController::index",
                "responses": {
                    "200": {
                        "description": "Mostrar todos las carreras."
                    },
                    "default": {
                        "description": "Ha ocurrido un error."
                    }
                },
                "security": [
                    {
                        "passport": []
                    }
                ]
            },
            "post": {
                "summary": "Crear carrera",
                "operationId": "App\\Http\\Controllers\\CareerController::store",
                "requestBody": {
                    "required": true,
                    "content": {
                        "application/json": {
                            "schema": {
                                "required": [
                                    "name",
                                    "code"
                                ],
                                "properties": {
                                    "name": {
                                        "type": "string",
                                        "example": "calculo diferencial"
                                    },
                                    "code": {
                                        "type": "string",
                                        "example": "cal-123"
                                    }
                                },
                                "type": "object"
                            }
                        }
                    }
                },
                "responses": {
                    "200": {
                        "description": "Mostrar todos las carreras."
                    },
                    "default": {
                        "description": "Ha ocurrido un error."
                    }
                }
            }
        }
    },
    "components": {
        "securitySchemes": {
            "passport": {
                "type": "apiKey",
                "description": "Laravel passport oauth2 security.",
                "in": "header",
                "scheme": "https",
                "flows": {
                    "password": {
                        "authorizationUrl": "http://localhost/oauth/authorize",
                        "tokenUrl": "http://localhost/oauth/token",
                        "refreshUrl": "http://localhost/token/refresh",
                        "scopes": []
                    }
                }
            }
        }
    }
}